%YAML 1.1
%TAG !u! tag:unity3d.com,2011:
--- !u!21 &2100000
Material:
  serializedVersion: 8
  m_ObjectHideFlags: 0
  m_CorrespondingSourceObject: {fileID: 0}
  m_PrefabInstance: {fileID: 0}
  m_PrefabAsset: {fileID: 0}
  m_Name: mat_Build_Metal
  m_Shader: {fileID: -6465566751694194690, guid: 543b03a6fda4eeb458507b6cc76c6a0f, type: 3}
  m_ValidKeywords: []
  m_InvalidKeywords:
  - _EMISSION
  m_LightmapFlags: 1
  m_EnableInstancingVariants: 0
  m_DoubleSidedGI: 0
  m_CustomRenderQueue: -1
  stringTagMap: {}
  disabledShaderPasses: []
  m_SavedProperties:
    serializedVersion: 3
    m_TexEnvs:
    - Texture2D_3C8920FB:
        m_Texture: {fileID: 0}
        m_Scale: {x: 1, y: 1}
        m_Offset: {x: 0, y: 0}
    - _BumpMap:
        m_Texture: {fileID: 0}
        m_Scale: {x: 1, y: 1}
        m_Offset: {x: 0, y: 0}
    - _DetailAlbedoMap:
        m_Texture: {fileID: 0}
        m_Scale: {x: 1, y: 1}
        m_Offset: {x: 0, y: 0}
    - _DetailMask:
        m_Texture: {fileID: 0}
        m_Scale: {x: 1, y: 1}
        m_Offset: {x: 0, y: 0}
    - _DetailNormalMap:
        m_Texture: {fileID: 0}
        m_Scale: {x: 1, y: 1}
        m_Offset: {x: 0, y: 0}
    - _EmissionMap:
        m_Texture: {fileID: 0}
        m_Scale: {x: 1, y: 1}
        m_Offset: {x: 0, y: 0}
    - _MainTex:
        m_Texture: {fileID: 0}
        m_Scale: {x: 1, y: 1}
        m_Offset: {x: 0, y: 0}
    - _MetallicGlossMap:
        m_Texture: {fileID: 0}
        m_Scale: {x: 1, y: 1}
        m_Offset: {x: 0, y: 0}
    - _OcclusionMap:
        m_Texture: {fileID: 0}
        m_Scale: {x: 1, y: 1}
        m_Offset: {x: 0, y: 0}
    - _ParallaxMap:
        m_Texture: {fileID: 0}
        m_Scale: {x: 1, y: 1}
        m_Offset: {x: 0, y: 0}
    m_Ints: []
    m_Floats:
    - Boolean_82DEB340: 0
    - Vector1_34E15879: 0
    - Vector1_BDAB29E4: 1
    - _AOFactor: 0
    - _BumpScale: 1
    - _Cutoff: 0.5
    - _DetailNormalMapScale: 1
    - _DstBlend: 0
    - _GlobalLightIntensity: 1
    - _Glossiness: 0.245
    - _Metallic: 0.249
    - _Mode: 0
    - _OcclusionStrength: 1
    - _Parallax: 0.02
    - _Shininess: 1
    - _Smothness: 0.5
    - _SrcBlend: 1
    - _UVSec: 0
    - _ZWrite: 1
    m_Colors:
    - Color_338C24C9: {r: 0.14538665, g: 0.16293332, b: 0.188, a: 0}
    - Color_4C3FC43: {r: 0.085, g: 0.085, b: 0.085, a: 0}
    - Vector2_4AA906D8: {r: 1, g: 1, b: 0, a: 0}
    - Vector2_7225E914: {r: 0, g: 0, b: 0, a: 0}
    - _Color: {r: 0.122, g: 0.11412904, b: 0.102322586, a: 0}
    - _ColorMain: {r: 0.24528301, g: 0.24528301, b: 0.24528301, a: 1}
    - _EmissionColor: {r: 0.17647058, g: 0, b: 0, a: 1}
    - _MidColor: {r: 0.3679245, g: 0.3679245, b: 0.3679245, a: 1}
    - _SpecColor: {r: 0.8018868, g: 0.8018868, b: 0.8018868, a: 1}
    - _Specular: {r: 0.143, g: 0.21624391, b: 0.286, a: 0}
  m_BuildTextureStacks: []
--- !u!114 &1882738700546542836
MonoBehaviour:
  m_ObjectHideFlags: 11
  m_CorrespondingSourceObject: {fileID: 0}
  m_PrefabInstance: {fileID: 0}
  m_PrefabAsset: {fileID: 0}
  m_GameObject: {fileID: 0}
  m_Enabled: 1
  m_EditorHideFlags: 0
  m_Script: {fileID: 11500000, guid: d0353a89b1f911e48b9e16bdc9f2e058, type: 3}
  m_Name: 
  m_EditorClassIdentifier: 
  version: 5
